Lab1/lab1/syn_program.out
Chronologic VCS simulator copyright 1991-2017
Contains Synopsys proprietary information.
Compiler version N-2017.12-SP2-1_Full64; Runtime version N-2017.12-SP2-1_Full64;  Jan 14 17:21 2019
Time:   0 clock:0 a_req:0 b_req:0 reset:1 a_res:x b_res:x
Time:   5 clock:1 a_req:0 b_req:0 reset:1 a_res:x b_res:x
Time:   6 clock:1 a_req:0 b_req:0 reset:1 a_res:0 b_res:0
Time:  10 clock:0 a_req:0 b_req:0 reset:1 a_res:0 b_res:0
Time:  15 clock:1 a_req:0 b_req:0 reset:1 a_res:0 b_res:0
Time:  20 clock:0 a_req:0 b_req:0 reset:0 a_res:0 b_res:0
Time:  25 clock:1 a_req:0 b_req:0 reset:0 a_res:0 b_res:0
Time:  30 clock:0 a_req:0 b_req:0 reset:0 a_res:0 b_res:0
Time:  35 clock:1 a_req:0 b_req:0 reset:0 a_res:0 b_res:0
Time:  40 clock:0 a_req:0 b_req:0 reset:0 a_res:0 b_res:0
Time:  45 clock:1 a_req:0 b_req:0 reset:0 a_res:0 b_res:0
Time:  50 clock:0 a_req:1 b_req:0 reset:0 a_res:0 b_res:0
Time:  55 clock:1 a_req:1 b_req:0 reset:0 a_res:0 b_res:0
Time:  56 clock:1 a_req:1 b_req:0 reset:0 a_res:1 b_res:0
Time:  60 clock:0 a_req:1 b_req:0 reset:0 a_res:1 b_res:0
Time:  65 clock:1 a_req:1 b_req:0 reset:0 a_res:1 b_res:0
Time:  70 clock:0 a_req:1 b_req:0 reset:0 a_res:1 b_res:0
Time:  75 clock:1 a_req:1 b_req:0 reset:0 a_res:1 b_res:0
Time:  80 clock:0 a_req:0 b_req:0 reset:0 a_res:1 b_res:0
Time:  85 clock:1 a_req:0 b_req:0 reset:0 a_res:1 b_res:0
Time:  86 clock:1 a_req:0 b_req:0 reset:0 a_res:0 b_res:0
Time:  90 clock:0 a_req:0 b_req:0 reset:0 a_res:0 b_res:0
Time:  95 clock:1 a_req:0 b_req:0 reset:0 a_res:0 b_res:0
Time: 100 clock:0 a_req:0 b_req:0 reset:0 a_res:0 b_res:0
Time: 105 clock:1 a_req:0 b_req:0 reset:0 a_res:0 b_res:0
Time: 110 clock:0 a_req:0 b_req:0 reset:0 a_res:0 b_res:0
Time: 115 clock:1 a_req:0 b_req:0 reset:0 a_res:0 b_res:0
Time: 120 clock:0 a_req:1 b_req:1 reset:0 a_res:0 b_res:0
Time: 125 clock:1 a_req:1 b_req:1 reset:0 a_res:0 b_res:0
Time: 126 clock:1 a_req:1 b_req:1 reset:0 a_res:1 b_res:0
Time: 130 clock:0 a_req:1 b_req:1 reset:0 a_res:1 b_res:0
Time: 135 clock:1 a_req:1 b_req:1 reset:0 a_res:1 b_res:0
Time: 140 clock:0 a_req:1 b_req:1 reset:0 a_res:1 b_res:0
Time: 145 clock:1 a_req:1 b_req:1 reset:0 a_res:1 b_res:0
Time: 150 clock:0 a_req:0 b_req:1 reset:0 a_res:1 b_res:0
Time: 155 clock:1 a_req:0 b_req:1 reset:0 a_res:1 b_res:0
Time: 156 clock:1 a_req:0 b_req:1 reset:0 a_res:0 b_res:0
Time: 160 clock:0 a_req:0 b_req:1 reset:0 a_res:0 b_res:0
Time: 165 clock:1 a_req:0 b_req:1 reset:0 a_res:0 b_res:0
Time: 166 clock:1 a_req:0 b_req:1 reset:0 a_res:0 b_res:1
Time: 170 clock:0 a_req:0 b_req:1 reset:0 a_res:0 b_res:1
Time: 175 clock:1 a_req:0 b_req:1 reset:0 a_res:0 b_res:1
Time: 180 clock:0 a_req:0 b_req:1 reset:0 a_res:0 b_res:1
Time: 185 clock:1 a_req:0 b_req:1 reset:0 a_res:0 b_res:1
Time: 190 clock:0 a_req:0 b_req:0 reset:0 a_res:0 b_res:1
Time: 195 clock:1 a_req:0 b_req:0 reset:0 a_res:0 b_res:1
Time: 196 clock:1 a_req:0 b_req:0 reset:0 a_res:0 b_res:0
Time: 200 clock:0 a_req:0 b_req:0 reset:0 a_res:0 b_res:0
Time: 205 clock:1 a_req:0 b_req:0 reset:0 a_res:0 b_res:0
Time: 210 clock:0 a_req:0 b_req:0 reset:0 a_res:0 b_res:0
Time: 215 clock:1 a_req:0 b_req:0 reset:0 a_res:0 b_res:0
Time: 220 clock:0 a_req:0 b_req:0 reset:0 a_res:0 b_res:0
Time: 225 clock:1 a_req:0 b_req:0 reset:0 a_res:0 b_res:0
$finish called from file "arbiter_test.v", line 60.
$finish at simulation time                  230
           V C S   S i m u l a t i o n   R e p o r t 
Time: 230
CPU Time:      0.230 seconds;       Data structure size:   0.1Mb
Mon Jan 14 17:21:09 2019
